0.000000000000000000e+00 2.875420168632913054e+00 1.740290323948243012e+00 5.559348232678191365e-02 7.434328816921581193e-04 1.021931299989429442e+00
1.005025125628140718e-02 4.704333949360381517e+00 2.145369432157629319e+00 7.562302274993937257e-02 9.751464966353922932e-04 1.148190595889687637e+00
2.010050251256281437e-02 7.739773282495034934e+00 2.639555143879957377e+00 1.023674235510530217e-01 1.274811508541850383e-03 1.289634397068022853e+00
3.015075376884421982e-02 1.275161285238984910e+01 3.241213213716338526e+00 1.385374836489051964e-01 1.661084762947927880e-03 1.449911704804736079e+00
4.020100502512562873e-02 2.095313597577728615e+01 3.972202614460135450e+00 1.875424278627380037e-01 2.157389387993030941e-03 1.629484984163998451e+00
5.025125628140703765e-02 3.422039464600209868e+01 4.858476800316983812e+00 2.526631313854580951e-01 2.793037822223792474e-03 1.830613736129979685e+00
6.030150753768843963e-02 5.664685455620446675e+01 5.930778333884307862e+00 3.387675103196542969e-01 3.604595432681143453e-03 2.055816864279864209e+00
7.035175879396984855e-02 9.338831169139324118e+01 7.225441166109644264e+00 4.520505596129169579e-01 4.637530438892926293e-03 2.307902262070098409e+00
8.040201005025125747e-02 1.523861202155541719e+02 8.785317495592236625e+00 6.003520153127011039e-01 5.948203232130211751e-03 2.589999815128948057e+00
9.045226130653266639e-02 2.487732903862876128e+02 1.066084924886251173e+01 7.935376377023450889e-01 7.606256484625589266e-03 2.905598224926535078e+00
1.005025125628140753e-01 5.960548602431592826e+02 1.291130784233948425e+01 1.043953749039523649e+00 9.750252163792334781e-03 3.258586110283613557e+00
1.105527638190954842e-01 5.990903473899855271e+03 1.566023077700193511e+01 1.366965465503311439e+00 1.247601108553754966e-02 3.653297899423581185e+00
1.206030150753768793e-01 5.203657211005024874e+04 1.896640954147363445e+01 1.781589835278167611e+00 1.591811076412905784e-02 4.094565088299677136e+00
1.306532663316583021e-01 2.097352390965592058e+05 2.292701477990302550e+01 2.311235824027473740e+00 2.025248659223641279e-02 4.588205842437514725e+00
1.407035175879396971e-01 4.865278189347630832e+05 2.766329905483189933e+01 2.994422894677128077e+00 2.569512789714684109e-02 5.146825123562641657e+00
1.507537688442211199e-01 6.936582359647331759e+05 3.331795347103057026e+01 3.875537474616734368e+00 3.251044543538787746e-02 5.772060318241465815e+00
1.608040201005025149e-01 7.043884445917974226e+05 4.005913908831222869e+01 4.992357478400928805e+00 4.102123265077154551e-02 6.471778327679339249e+00
1.708542713567839100e-01 6.978265832133013755e+05 4.808606599465156961e+01 6.400948904637359327e+00 5.162050351094270989e-02 7.254782489722267691e+00
1.809045226130653328e-01 7.828112134582193103e+05 5.763916017162307526e+01 8.168836634184927448e+00 6.478554155030040451e-02 8.130927716316506348e+00
1.909547738693467278e-01 9.478287741262144409e+05 6.902853797914842460e+01 1.037691016292590085e+01 8.109455767382880986e-02 9.111250636668748015e+00
2.010050251256281506e-01 1.141873224141484825e+06 8.273604700098942999e+01 1.312156900695519823e+01 1.012464304103464913e-01 1.020811684823720000e+01
2.110552763819095456e-01 1.308626891699975822e+06 9.974926455426285088e+01 1.651713317523826063e+01 1.266390968657818694e-01 1.143538768942555173e+01
2.211055276381909684e-01 1.418535746240697103e+06 1.250316601906772718e+02 2.069855030599619283e+01 1.581497754873073813e-01 1.280860930557402000e+01
2.311557788944723635e-01 1.479982062816760968e+06 1.793006360856086303e+02 2.582443973019750771e+01 1.970272978164536171e-01 1.434522718915372508e+01
2.412060301507537585e-01 1.523145682892957469e+06 3.525782105784816167e+02 3.208052543693869296e+01 2.448928658134270353e-01 1.606636045998422091e+01
2.512562814070351536e-01 1.577004581380535383e+06 9.907736337164677707e+02 3.977084857804485551e+01 3.037100918103765590e-01 1.801754273287116348e+01
2.613065326633166041e-01 1.664384800949082943e+06 3.242388895083137868e+03 4.921423766495470176e+01 3.758588203515725312e-01 2.020587692396448176e+01
2.713567839195979992e-01 1.804682435224560089e+06 1.035404245542753415e+04 6.064525202396098535e+01 4.642270545457859998e-01 2.266086657770862800e+01
2.814070351758793942e-01 2.011555319482633611e+06 3.003433923751092516e+04 7.443012265889106516e+01 5.723263350960682283e-01 2.541588672013457995e+01
2.914572864321607892e-01 2.244121989548595157e+06 7.746948766578115465e+04 9.099627873370380371e+01 7.044376872368133258e-01 2.850873612823419734e+01
3.015075376884422398e-01 2.424258508959060535e+06 1.771304261580228922e+05 1.108439656942510396e+02 8.657976132241449463e-01 3.198227668306788729e+01
3.115577889447236348e-01 2.481997860770550091e+06 3.600638214598963968e+05 1.345616348692357462e+02 1.062836725945700778e+00 3.588517489415181672e+01
3.216080402010050299e-01 2.388518228943679482e+06 6.526196121545271017e+05 1.628471237356799008e+02 1.308720333749343601e+00 4.027276347910004262e+01
3.316582914572864249e-01 2.152433948073932435e+06 1.060554639735176694e+06 1.965379961565943461e+02 1.612287272216476941e+00 4.520804420353415765e+01
3.417085427135678199e-01 1.803280202383213677e+06 1.520325424538381631e+06 2.366567200488470633e+02 1.986664723159439871e+00 5.076285711539400580e+01
3.517587939698492705e-01 1.384251519306415692e+06 1.961633029839034891e+06 2.844801895689956268e+02 2.449936401717890622e+00 5.702519762941900439e+01
3.618090452261306655e-01 9.533783036118237069e+05 2.335079692155264318e+06 3.422931017826066977e+02 3.025989915788902529e+00 6.418206742271728160e+01
3.718592964824120606e-01 5.762196710300197592e+05 2.625209655801270623e+06 4.130480718858401588e+02 3.747263903104373295e+00 7.227517895576521312e+01
3.819095477386934556e-01 3.004132003826272557e+05 2.843127087902182247e+06 5.001930248953715932e+02 4.659542471862572199e+00 8.143694209084756608e+01
3.919597989949749062e-01 1.407035464859843487e+05 3.010983650838566944e+06 6.110544682808739481e+02 5.830855554860416845e+00 9.182073928321396750e+01
4.020100502512563012e-01 5.927952025384534500e+04 3.149918669901386369e+06 7.643612681181616608e+02 7.368759276379137191e+00 1.036047245686009717e+02
4.120603015075376963e-01 2.222424171529649175e+04 3.276250652198970318e+06 1.037260444921531416e+03 9.454567886878656680e+00 1.169964103586081592e+02
4.221105527638190913e-01 7.424709579161632973e+03 3.403740680240950081e+06 1.845529608851059947e+03 1.241055964280661073e+01 1.322382259474781563e+02
4.321608040201004863e-01 2.256992099409148977e+03 3.546400753671702463e+06 5.317637864451638961e+03 1.714135757229634649e+01 1.496142781231017693e+02
4.422110552763819369e-01 6.733056984275297054e+02 3.721410865094394889e+06 2.021950872369414719e+04 2.534447841855040906e+01 1.694586025244347240e+02
4.522613065326633319e-01 2.368408206545271355e+02 3.930659312411845196e+06 7.424387286968936678e+04 4.085675592277869583e+01 1.921652668257869152e+02
4.623115577889447270e-01 1.192342347922824786e+02 4.151484096360913012e+06 2.361020310339227144e+05 7.243720053050012098e+01 2.182299819953641133e+02
4.723618090452261220e-01 8.082565601849965731e+01 4.311171268588626757e+06 6.605562599906006362e+05 1.397218736651685447e+02 2.486843229014541237e+02
4.824120603015075170e-01 6.172507093871683992e+01 4.270104262523650192e+06 1.499538974960136693e+06 2.857441255547164474e+02 2.839024747184696480e+02
4.924623115577889676e-01 4.857657268325970534e+01 3.872971223503680434e+06 2.651893237897148356e+06 6.018011712314236092e+02 3.247575898093650153e+02
5.025125628140703071e-01 3.859871666659443434e+01 3.076418412269250490e+06 3.827723764915532898e+06 1.273953122381486764e+03 3.723145377710739581e+02
5.125628140703517577e-01 3.068258634713059863e+01 2.042231640825000824e+06 4.761051583975898102e+06 2.664366755855643078e+03 4.278798266087313209e+02
5.226130653266332082e-01 2.435458569379569482e+01 1.081038141856933944e+06 5.358914954899843782e+06 5.444052108458397015e+03 4.930663851884478959e+02
5.326633165829145478e-01 1.930205386781818078e+01 4.398832502521426068e+05 5.674368049260445870e+06 1.079516079288317633e+04 5.698780209718746619e+02
5.427135678391959983e-01 1.527596364046863187e+01 1.356321103042644390e+05 5.807218257709372789e+06 2.152779323438417850e+04 6.608199754603086831e+02
5.527638190954774489e-01 1.207475776025220782e+01 3.885202875339845195e+04 5.831051412458921783e+06 4.138996021009705873e+04 7.690441245590507151e+02
5.628140703517587884e-01 9.534826949134670215e+00 9.916464979907646921e+03 5.781972027794771828e+06 7.576697671269028797e+04 8.985401446116367197e+02
5.728643216080402389e-01 7.523510818858229143e+00 2.432516193097839277e+03 5.675044820940801874e+06 1.317402594265369116e+05 1.054637828803389311e+03
5.829145728643215785e-01 5.933509119701029455e+00 8.025357913141079962e+02 5.513594499127221294e+06 2.173526105908999452e+05 1.248356780963062192e+03
5.929648241206030290e-01 4.678314589616212160e+00 4.588842755227633461e+02 5.297265776372043416e+06 3.403102912221670267e+05 1.486481372387698912e+03
6.030150753768844796e-01 3.688444938330403211e+00 3.542480900516284237e+02 5.024674590180386789e+06 5.061803656191939372e+05 1.781641369778200897e+03
6.130653266331658191e-01 2.922337358179835753e+00 2.956245612935787221e+02 4.691213624584601261e+06 7.164792570678814081e+05 2.150718154155003049e+03
6.231155778894472697e-01 2.317934557717639787e+00 2.507601951847086355e+02 4.295643506662032567e+06 9.672046887016084511e+05 2.616450226296722121e+03
6.331658291457286092e-01 1.838345033000018391e+00 2.133526071877308254e+02 3.842830254662163556e+06 1.248379058196740923e+06 3.209690342304008482e+03
6.432160804020100597e-01 1.457799927339236579e+00 1.814356652763383408e+02 3.345160340590443462e+06 1.545006109112703474e+06 3.972588758758949098e+03
6.532663316582915103e-01 1.155787478723446782e+00 1.540059962180828279e+02 2.822295812803429551e+06 1.837427905466930941e+06 4.963092547414154978e+03
6.633165829145728498e-01 9.160224506591829741e-01 1.306993841995084722e+02 2.299150572935536038e+06 2.107641481873649638e+06 6.261311822011798540e+03
6.733668341708543004e-01 7.256011903105948901e-01 1.106264889155600457e+02 1.802331869180258596e+06 2.344723974884464405e+06 7.978523640285734473e+03
6.834170854271356399e-01 5.743135465441139287e-01 9.333416375384993557e+01 1.355765738022033591e+06 2.543423830550190061e+06 1.027602890430778098e+04
6.934673366834170904e-01 4.540863452768066910e-01 7.847346337491347867e+01 9.806225384036258329e+05 2.704140658411689568e+06 1.349819161450664615e+04
7.035175879396985410e-01 3.585362981362972823e-01 6.573945430363404796e+01 6.848025804338720627e+05 2.831964162355249282e+06 1.794963183801671403e+04
7.135678391959798805e-01 2.826131439019211045e-01 5.486346680904787121e+01 4.604948573365906486e+05 2.934978388566438574e+06 2.416208912076455454e+04
7.236180904522613311e-01 2.233737885603107320e-01 4.560764447665474108e+01 2.983817598044709302e+05 3.021993786442245822e+06 3.291504345212913177e+04
7.336683417085426706e-01 1.763288408881984182e-01 3.776089547252530565e+01 1.865287520244034822e+05 3.100036021411888767e+06 4.535452772869549517e+04
7.437185929648241212e-01 1.388104438146436914e-01 3.113573931697359498e+01 1.127249197808590834e+05 3.172141968813404441e+06 6.316692612644363544e+04
7.537688442211055717e-01 1.089471333766915406e-01 2.556575933154898550e+01 6.605266911647722009e+04 3.236215472986232024e+06 8.882892175779936952e+04
7.638190954773869112e-01 8.523045419225314112e-02 2.090348497545216944e+01 3.768271775237278052e+04 3.283419971512460615e+06 1.259571716856437270e+05
7.738693467336683618e-01 6.644375036955513236e-02 1.708141855237132845e+01 2.104311503425240517e+04 3.305762588003458921e+06 1.797756547548191156e+05
7.839195979899498123e-01 5.160530597577079465e-02 1.390773738743544996e+01 1.158103990513706049e+04 3.297855597191643436e+06 2.576939656686212693e+05
7.939698492462311519e-01 3.992291112814390364e-02 1.127712406077628948e+01 6.334617388709589250e+03 3.256895114406054839e+06 3.703021232046677615e+05
8.040201005025126024e-01 3.075749677076335467e-02 9.106244557637161563e+00 3.543728024679327063e+03 3.181019201935337391e+06 5.379613452075388050e+05
8.140703517587939420e-01 2.359395488499684002e-02 7.322682904913966340e+00 2.045105637162532048e+03 3.066037289702323731e+06 7.722393655886960914e+05
8.241206030150753925e-01 1.801765123639033350e-02 5.863845729911192350e+00 1.204346157346830751e+03 2.902755761974444147e+06 1.081730248275891179e+06
8.341708542713568431e-01 1.377902002721804672e-02 4.675926076907157558e+00 7.319672165122068463e+02 2.677791483679811936e+06 1.458000047684065998e+06
8.442211055276381826e-01 1.050421015019573946e-02 3.712927466588701986e+00 4.635401239421950663e+02 2.380237498569224961e+06 1.870043191742256051e+06
8.542713567839196331e-01 7.969227439330484053e-03 2.935750561961141258e+00 3.074917193053501023e+02 2.013532046397420112e+06 2.271612381403455045e+06
8.643216080402009727e-01 6.016289102790982508e-03 2.311345185946278136e+00 2.135880099437009960e+02 1.606003290959063219e+06 2.617509132279286627e+06
8.743718592964824232e-01 4.519143192738181956e-03 1.811930036669621158e+00 1.545256785028414015e+02 1.211598853241310921e+06 2.877890468477578834e+06
8.844221105527638738e-01 3.377202200952080652e-03 1.422031207526472496e+00 1.154970203401445872e+02 8.752605778892196249e+05 3.042275881659714971e+06
8.944723618090452133e-01 2.510692264914131128e-03 1.112104700759003029e+00 8.842098389328442920e+01 6.112043506458128104e+05 3.113011256928578485e+06
9.045226130653266639e-01 1.856651632467934106e-03 8.660064965368586831e-01 6.881572933400634895e+01 4.160666122803969192e+05 3.095978891401460394e+06
9.145728643216080034e-01 1.365639082847919369e-03 6.714523508757099801e-01 5.429811800320420900e+01 2.780315314301964245e+05 2.990738524795666337e+06
9.246231155778894539e-01 9.990354470911422171e-04 5.183312969863196340e-01 4.321783253155768989e+01 1.833718125223387324e+05 2.813336670273122378e+06
9.346733668341709045e-01 7.268399658058125610e-04 3.983616353419619505e-01 3.448433313769510988e+01 1.198494975193136343e+05 2.573542110545178410e+06
9.447236180904522440e-01 5.303681509628451179e-04 3.047931598264685404e-01 2.753970128121172678e+01 7.786098038191918749e+04 2.285264479945675004e+06
9.547738693467336946e-01 3.856770637020801918e-04 2.321510188542817987e-01 2.198625086227104575e+01 5.039467728520902165e+04 1.966615254714311333e+06
9.648241206030150341e-01 2.788811199359245564e-04 1.760167525736403282e-01 1.753114671781502309e+01 3.255403398110883427e+04 1.638343447095666081e+06
9.748743718592964846e-01 2.005122938643368296e-04 1.328422539471494357e-01 1.395241559527359954e+01 2.101779084402963417e+04 1.321039516824068036e+06
9.849246231155779352e-01 1.433405245814047295e-04 9.979265794046493498e-02 1.107778123976479279e+01 1.380438642342744606e+04 1.032025509269018308e+06
9.949748743718592747e-01 1.018789107946038155e-04 7.518233993173682739e-02 8.771130707970764107e+00 9.093748266682088797e+03 7.829612686310362769e+05
1.005025125628140614e+00 7.198959615745432615e-05 5.643225923984735576e-02 6.923550933129147822e+00 5.992386189075195944e+03 5.789266632473202189e+05
1.015075376884422065e+00 5.057193823827500306e-05 4.215797073660573074e-02 5.447152204986069890e+00 3.953008923246601171e+03 4.194068782649454661e+05
1.025125628140703515e+00 3.531746074322876733e-05 3.134392978468472646e-02 4.282960145204199875e+00 2.612420968898810315e+03 3.023168870778547716e+05
1.035175879396984966e+00 2.451862578385480046e-05 2.319160080435669555e-02 3.366121253291608717e+00 1.730787950985863745e+03 2.159924269337677397e+05
1.045226130653266416e+00 1.692066309678054892e-05 1.707634403860697897e-02 2.635673518625613720e+00 1.150310795403864631e+03 1.536105809162998630e+05
1.055276381909547645e+00 1.174265609438679040e-05 1.251211479988733818e-02 2.055804770592288389e+00 7.674207852412869215e+02 1.092197921734768024e+05
1.065326633165829096e+00 8.122499086929412004e-06 9.122723332891493134e-03 1.597190704570527808e+00 5.142416791689221327e+02 7.796926961153802404e+04
1.075376884422110546e+00 5.583357843281680224e-06 6.618570953534372824e-03 1.235879410766003605e+00 3.463171022962955021e+02 5.610205162350789760e+04
1.085427135678391997e+00 3.813960643916301492e-06 4.777929250972689883e-03 9.523634629093598036e-01 2.345278578715604567e+02 4.082224504969853297e+04
1.095477386934673447e+00 2.588959275059764825e-06 3.431964551962734221e-03 7.308063581832657807e-01 1.619002322040254853e+02 3.011335215694943327e+04
1.105527638190954898e+00 1.746371015903727737e-06 2.477875045567993432e-03 5.583969175811432928e-01 1.125558894612271530e+02 2.255549617700690942e+04
1.115577889447236126e+00 1.170589713436985270e-06 1.782232456460983074e-03 4.248104475487170517e-01 7.862530453487912041e+01 1.716620102903683801e+04
1.125628140703517577e+00 7.796952511369627447e-07 1.275290970406138362e-03 3.217594090540661367e-01 5.520999386029343725e+01 1.328077406804476414e+04
1.135678391959799027e+00 5.160509608942258183e-07 9.078495255842429718e-04 2.435641770635731396e-01 3.898148134035304224e+01 1.050087918946425089e+04
1.145728643216080478e+00 3.393936205009381697e-07 6.429552056720229912e-04 1.843364705985296170e-01 2.767854988856781162e+01 8.404257448654921973e+03
1.155778894472361928e+00 2.217962990557594732e-07 4.530181065271039970e-04 1.388786365887894059e-01 1.976370290502371674e+01 6.802839850763701179e+03
1.165829145728643157e+00 1.462323361737911066e-07 3.175612096302232864e-04 1.041508095761661257e-01 1.418959253522412745e+01 5.563935358512520907e+03
1.175879396984924607e+00 9.611594536179585377e-08 2.214771405231533423e-04 7.774470334015610995e-02 1.024077603436521855e+01 4.593423964551403515e+03
1.185929648241206058e+00 6.273696679134005151e-08 1.536866421298828682e-04 5.776157630126722148e-02 7.426752757412272921e+00 3.824040815455597112e+03
1.195979899497487509e+00 4.066689821371061802e-08 1.061131177069943847e-04 4.271177103626624949e-02 5.409750170851495454e+00 3.207263888658017095e+03
1.206030150753768959e+00 2.617943688832067728e-08 7.290405536233746824e-05 3.143241734410834320e-02 3.990821441574463613e+00 2.707717475290510720e+03
1.216080402010050188e+00 1.673757357007920018e-08 5.049927171480230874e-05 2.302035505447834821e-02 2.955979886800701006e+00 2.299313054261771413e+03
1.226130653266331638e+00 1.062791126254379523e-08 3.485764413332742789e-05 1.677774660471163803e-02 2.193574816576058240e+00 1.962581477301276664e+03
1.236180904522613089e+00 6.702486925231325540e-09 2.393701948274624857e-05 1.216821500042723943e-02 1.630335135835300209e+00 1.683147195760551767e+03
1.246231155778894539e+00 4.198220984407188760e-09 1.635476232987903187e-05 8.827584204319524272e-03 1.213181221189483017e+00 1.452990156802080946e+03
1.256281407035175990e+00 2.611823329078902469e-09 1.111903679335036727e-05 6.408814620039195858e-03 9.035353690152672090e-01 1.258343079067048620e+03
1.266331658291457218e+00 1.613907933773344160e-09 7.522965935537528381e-06 4.629144407503271545e-03 6.732584049454121145e-01 1.092953743801846031e+03
1.276381909547738669e+00 1.009987172598664979e-09 5.065982844590639771e-06 3.326575832728777011e-03 5.017478673627541186e-01 9.518183533552797826e+02
1.286432160804020119e+00 6.302380612337285399e-10 3.395845914671451553e-06 2.378237051271769008e-03 3.738627868307903834e-01 8.309048389554621963e+02
1.296482412060301570e+00 3.902164062125257867e-10 2.266218574665542839e-06 1.691460934738802518e-03 2.784358001244148229e-01 7.269422437766909297e+02
1.306532663316583021e+00 2.397539782558806532e-10 1.505870643428110119e-06 1.196759096546874809e-03 2.072027194069724632e-01 6.372597309226159723e+02
1.316582914572864249e+00 1.461932990866302242e-10 9.964836660359603046e-07 8.423234805804071402e-04 1.552107352162615528e-01 5.596628719302135551e+02
1.326633165829145700e+00 8.847647966790037228e-11 6.672039599143908140e-07 5.897508233140032327e-04 1.162418081627007438e-01 4.923380132283288617e+02
1.336683417085427150e+00 5.314964371291074791e-11 4.455630175873342996e-07 4.107393522820300706e-04 8.688861272765016630e-02 4.337778753079791159e+02
1.346733668341708601e+00 3.169385392363633798e-11 2.961994846587541987e-07 2.845531047129268580e-04 6.481269500394547245e-02 3.827698106003956013e+02
1.356783919597990051e+00 1.876199263563551432e-11 1.960519375824126256e-07 1.974303396393151653e-04 4.823834623512138903e-02 3.387538417467221166e+02
1.366834170854271280e+00 1.102647085096726782e-11 1.292271891619707457e-07 1.372538750264285889e-04 3.581794741961641382e-02 3.001189181441748701e+02
1.376884422110552730e+00 6.433835371844277421e-12 8.484248252340173652e-08 9.488002475621040049e-05 2.652948070796916011e-02 2.661540287827646694e+02
1.386934673366834181e+00 3.818961714421195529e-12 5.549146169557406127e-08 6.521739032133519888e-05 1.959853783526898513e-02 2.362506898329378657e+02
1.396984924623115631e+00 2.260797021373414132e-12 3.616295968482021636e-08 4.457482198343957656e-05 1.443896214088809769e-02 2.098867738993241403e+02
1.407035175879397082e+00 1.326689190266584127e-12 2.348511795026037850e-08 3.029372138733881734e-05 1.060766045040967970e-02 1.866131126577112980e+02
1.417085427135678311e+00 7.719085590060244010e-13 1.520099538441065320e-08 2.047160008800416413e-05 7.770193833907155893e-03 1.660423647622483827e+02
1.427135678391959761e+00 4.453855287596884310e-13 9.807407708470808244e-09 1.375582233247222403e-05 5.722874999395119802e-03 1.478397368287787117e+02
1.437185929648241212e+00 2.548904405573804480e-13 6.420450390088583157e-09 9.190867414104792501e-06 4.208007741363806002e-03 1.317152237970592523e+02
1.447236180904522662e+00 1.447047200956698828e-13 4.195049921870843862e-09 6.106063354282902779e-06 3.083496289576671476e-03 1.174170986000884227e+02
1.457286432160804113e+00 8.150427328953086007e-14 2.729651970924824182e-09 4.033673935204136655e-06 2.251625762037801504e-03 1.047366791159278137e+02
1.467336683417085341e+00 4.555089538265189036e-14 1.769086363685002213e-09 2.672746336452172655e-06 1.638386256068226224e-03 9.359632889543816248e+01
1.477386934673366792e+00 2.526254445542721677e-14 1.142147289417948112e-09 1.777157070967255535e-06 1.187915317051184460e-03 8.367178861480515195e+01
1.487437185929648242e+00 1.390467735935230402e-14 7.346384864076758364e-10 1.174240125050320628e-06 8.581950813243232170e-04 7.482458526527197762e+01
1.497487437185929693e+00 7.825483647329131979e-15 4.708029981289058662e-10 7.710291828559509206e-07 6.177328222386584133e-04 6.693292221503060091e+01
1.507537688442211143e+00 4.393233322237176386e-15 3.006377429859278526e-10 5.031363006767534533e-07 4.430091921839396200e-04 5.988954613439895525e+01
1.517587939698492594e+00 2.442116203495290643e-15 1.912940807875055107e-10 3.263008094336709958e-07 3.165235283588253108e-04 5.359990221546600253e+01
1.527638190954773822e+00 1.344700209222671552e-15 1.212884923674208688e-10 2.103215665214735141e-07 2.253018428507756266e-04 4.798053700418707734e+01
1.537688442211055273e+00 7.336746904549910989e-16 7.662956072911762966e-11 1.347401563489431479e-07 1.613848974320892659e-04 4.295771403978854863e+01
1.547738693467336724e+00 3.967539558575111960e-16 4.918680854991510542e-11 8.579685368064931917e-08 1.153568089605504275e-04 3.846621254395186185e+01
1.557788944723618174e+00 2.127072544410261644e-16 3.149563200718070310e-11 5.430245146665505460e-08 8.211112659500341502e-05 3.444828371750006824e+01
1.567839195979899625e+00 1.130775204963847177e-16 2.006841263062892732e-11 3.416278361025402544e-08 5.820178545916491363e-05 3.085547310193819825e+01
1.577889447236180853e+00 5.961852513684726567e-17 1.272579335955363634e-11 2.159785062697096297e-08 4.108113528166798371e-05 2.767300935288862718e+01
1.587939698492462304e+00 3.117923969927536704e-17 8.031583208476465294e-12 1.372601485866676226e-08 2.887460975489591615e-05 2.481867673775450100e+01
1.597989949748743754e+00 1.617667977892565878e-17 5.045297954831485568e-12 8.662410489590949658e-09 2.020936521855820471e-05 2.225820109183607087e+01
1.608040201005025205e+00 8.631528187814097483e-18 3.154702526166237948e-12 5.429314782058878946e-09 1.408468450530482686e-05 1.996099085544087970e+01
1.618090452261306655e+00 4.594840909579078642e-18 1.963477534635851407e-12 3.379943924709472066e-09 9.774496486285940040e-06 1.789972478211706175e+01
1.628140703517587884e+00 2.418858698544841085e-18 1.216449973834911379e-12 2.090132649426164663e-09 6.754441193487986591e-06 1.604998792457537959e+01
1.638190954773869334e+00 1.259998672879039363e-18 7.501780105924351786e-13 1.284031946669094801e-09 4.647584620921200728e-06 1.438995005309832287e+01
1.648241206030150785e+00 6.497780019965578925e-19 4.605048938998769122e-13 7.836999047283529390e-10 3.223349868935433719e-06 1.290008137104121566e+01
1.658291457286432236e+00 3.318752381119639854e-19 2.876172446224897684e-13 4.752555206738290503e-10 2.230430026550199710e-06 1.156290102041892709e+01
1.668341708542713686e+00 1.679386765884732145e-19 1.790485822197025531e-13 2.863761406390298184e-10 1.536000232391876813e-06 1.036275442502468280e+01
1.678391959798994915e+00 8.422111194682809581e-20 1.107859878930796643e-13 1.714768195907006786e-10 1.052756394982557696e-06 9.286416323730504629e+00
1.688442211055276365e+00 4.186928245626791182e-20 6.814362434403095411e-14 1.034056020477069204e-10 7.181412414078890853e-07 8.330364362976800052e+00
1.698492462311557816e+00 2.063807876408986435e-20 4.167240966027282509e-14 6.281014135821820090e-11 4.875823957732546653e-07 7.471065113993031304e+00
1.708542713567839266e+00 1.008845600412018312e-20 2.533973632886938968e-14 3.785685860814862236e-11 3.294979818449395722e-07 6.698821734539627926e+00
1.718592964824120717e+00 5.104387690054620073e-21 1.532234548105259782e-14 2.264563633366332542e-11 2.216329827156484469e-07 6.004909975932692490e+00
1.728643216080401945e+00 2.576765194374658501e-21 9.214073693702568733e-15 1.344725380184039997e-11 1.483895440904140248e-07 5.381479327778913024e+00
1.738693467336683396e+00 1.284501198856858541e-21 5.510743170175387748e-15 7.928037498744094244e-12 9.889404767608003010e-08 4.821464458904350714e+00
1.748743718592964846e+00 6.328591393788628723e-22 3.278125997669250711e-15 4.641370881857178788e-12 6.560637728909455814e-08 4.318505852489027852e+00
1.758793969849246297e+00 3.083902942379481994e-22 1.939634482016080680e-15 2.698569841264965255e-12 4.396683240027038755e-08 3.866878652593491950e+00
1.768844221105527748e+00 1.487189812819858020e-22 1.170859952661220753e-15 1.558404218429792766e-12 2.939789862849042339e-08 3.461428846141034743e+00
1.778894472361808976e+00 7.100864286371064420e-23 7.040782975423195331e-16 8.939900297716711581e-13 1.955412532149476749e-08 3.097516000009564952e+00
1.788944723618090427e+00 3.358210969472915766e-23 4.204252134958622807e-16 5.094879229924937394e-13 1.293986816393887730e-08 2.771205363202871919e+00
1.798994974874371877e+00 1.573629465027998243e-23 2.493539052784553626e-16 2.931403315206120469e-13 8.519754199946420788e-09 2.481493059397372747e+00
1.809045226130653328e+00 7.308341423959044585e-24 1.469247680402724028e-16 1.702619762151882002e-13 5.581679885788676913e-09 2.221261173356620766e+00
1.819095477386934778e+00 3.364833319946392175e-24 8.602091998702328498e-17 9.804355930996041428e-14 3.638958979960648971e-09 1.987581137971539125e+00
1.829145728643216007e+00 1.614884298863742208e-24 5.005086490038673644e-17 5.599306336795646423e-14 2.361003395024865402e-09 1.777809868671200055e+00
1.839195979899497457e+00 7.732360104442621864e-25 2.894522860971052669e-17 3.172450109324108718e-14 1.524598385676090108e-09 1.589562253190976548e+00
1.849246231155778908e+00 3.650048873746679944e-25 1.663996704562611237e-17 1.783667865529801785e-14 9.799081265689682709e-10 1.420686283514793313e+00
1.859296482412060358e+00 1.700747194584795181e-25 9.510078709075468496e-18 9.953822460650476604e-15 6.269278923953703332e-10 1.269240575726888309e+00
1.869346733668341809e+00 7.829902414008665890e-26 5.403969316953912096e-18 5.514525194939092219e-15 4.062817774406897802e-10 1.133474047871351420e+00
1.879396984924623037e+00 3.564378847345546453e-26 3.144168390416855452e-18 3.033499278356727221e-15 2.627628040224201834e-10 1.011807548047749972e+00
1.889447236180904488e+00 1.605439176869545112e-26 1.821651498070594416e-18 1.657156939378540951e-15 1.690177569953486269e-10 9.028172450349577494e-01
1.899497487437185939e+00 7.158290506459989795e-27 1.047185099801871435e-18 8.991380115271388818e-16 1.081442515011273594e-10 8.052937910270697719e-01
1.909547738693467389e+00 3.160935102728896651e-27 5.974967341634440383e-19 4.938608603814611309e-16 6.884026629949889025e-11 7.189193172001160370e-01
1.919597989949748840e+00 1.382828628706363426e-27 3.384798083186455682e-19 2.744717935232999372e-16 4.360238697965028888e-11 6.415141537832103058e-01
1.929648241206030068e+00 5.995146269756954543e-28 1.904263562842280239e-19 1.510876398937528968e-16 2.748293149546221071e-11 5.721767908312119788e-01
1.939698492462311519e+00 2.730337777668782348e-28 1.064178854543582319e-19 8.241884247912335330e-17 1.724064807435585264e-11 5.100935187826123318e-01
1.949748743718592969e+00 1.240355515562331957e-28 5.908521217933847015e-20 4.457386093266836009e-17 1.076542206730999908e-11 4.545301202127226547e-01
1.959798994974874420e+00 5.544849453122443122e-29 3.259809585266106673e-20 2.390835717147716249e-17 6.691776412616461150e-12 4.048243282576857172e-01
1.969849246231155870e+00 2.443296712172332974e-29 1.787387236776823518e-20 1.272243939679318233e-17 4.141212337022720440e-12 3.603789825873692232e-01
1.979899497487437321e+00 1.062579333954422411e-29 9.741240636741121001e-21 6.718280820374297983e-18 2.603261788468921906e-12 3.206558198498546397e-01
1.989949748743718549e+00 4.565398514462979288e-30 5.458607253689347344e-21 3.521380972517381472e-18 1.633729023261749402e-12 2.851698410605880141e-01
2.000000000000000000e+00 1.939424123653464893e-30 3.044806384498858782e-21 1.832406380422313758e-18 1.019536812497739080e-12 2.534842034977083380e-01
